1. <book>

2. <title>  <author>  <year> <price>

3.<book> <title> <author> <year> <price>

4.<book> <bookstore>

5.<bookstore> <book> <title>

6.<author> <year> <price>

7.<title>  <author> <year>

8.<author> <year> <price>